('F:\\prog\\project_vvpd\\build\\main\\PYZ-00.pyz',
 [('pkg_resources',
   'c:\\puton\\lib\\site-packages\\pkg_resources\\__init__.py',
   'PYMODULE'),
  ('packaging.markers',
   'c:\\puton\\lib\\site-packages\\packaging\\markers.py',
   'PYMODULE'),
  ('typing', 'c:\\puton\\lib\\typing.py', 'PYMODULE'),
  ('contextlib', 'c:\\puton\\lib\\contextlib.py', 'PYMODULE'),
  ('pyparsing', 'c:\\puton\\lib\\site-packages\\pyparsing.py', 'PYMODULE'),
  ('uuid', 'c:\\puton\\lib\\uuid.py', 'PYMODULE'),
  ('hashlib', 'c:\\puton\\lib\\hashlib.py', 'PYMODULE'),
  ('logging', 'c:\\puton\\lib\\logging\\__init__.py', 'PYMODULE'),
  ('pickle', 'c:\\puton\\lib\\pickle.py', 'PYMODULE'),
  ('doctest', 'c:\\puton\\lib\\doctest.py', 'PYMODULE'),
  ('unittest', 'c:\\puton\\lib\\unittest\\__init__.py', 'PYMODULE'),
  ('unittest.signals', 'c:\\puton\\lib\\unittest\\signals.py', 'PYMODULE'),
  ('signal', 'c:\\puton\\lib\\signal.py', 'PYMODULE'),
  ('unittest.main', 'c:\\puton\\lib\\unittest\\main.py', 'PYMODULE'),
  ('unittest.runner', 'c:\\puton\\lib\\unittest\\runner.py', 'PYMODULE'),
  ('unittest.loader', 'c:\\puton\\lib\\unittest\\loader.py', 'PYMODULE'),
  ('fnmatch', 'c:\\puton\\lib\\fnmatch.py', 'PYMODULE'),
  ('unittest.suite', 'c:\\puton\\lib\\unittest\\suite.py', 'PYMODULE'),
  ('unittest.case', 'c:\\puton\\lib\\unittest\\case.py', 'PYMODULE'),
  ('unittest.async_case',
   'c:\\puton\\lib\\unittest\\async_case.py',
   'PYMODULE'),
  ('asyncio', 'c:\\puton\\lib\\asyncio\\__init__.py', 'PYMODULE'),
  ('asyncio.unix_events',
   'c:\\puton\\lib\\asyncio\\unix_events.py',
   'PYMODULE'),
  ('asyncio.log', 'c:\\puton\\lib\\asyncio\\log.py', 'PYMODULE'),
  ('selectors', 'c:\\puton\\lib\\selectors.py', 'PYMODULE'),
  ('asyncio.windows_events',
   'c:\\puton\\lib\\asyncio\\windows_events.py',
   'PYMODULE'),
  ('asyncio.windows_utils',
   'c:\\puton\\lib\\asyncio\\windows_utils.py',
   'PYMODULE'),
  ('asyncio.selector_events',
   'c:\\puton\\lib\\asyncio\\selector_events.py',
   'PYMODULE'),
  ('ssl', 'c:\\puton\\lib\\ssl.py', 'PYMODULE'),
  ('calendar', 'c:\\puton\\lib\\calendar.py', 'PYMODULE'),
  ('base64', 'c:\\puton\\lib\\base64.py', 'PYMODULE'),
  ('getopt', 'c:\\puton\\lib\\getopt.py', 'PYMODULE'),
  ('gettext', 'c:\\puton\\lib\\gettext.py', 'PYMODULE'),
  ('asyncio.proactor_events',
   'c:\\puton\\lib\\asyncio\\proactor_events.py',
   'PYMODULE'),
  ('asyncio.base_subprocess',
   'c:\\puton\\lib\\asyncio\\base_subprocess.py',
   'PYMODULE'),
  ('asyncio.subprocess', 'c:\\puton\\lib\\asyncio\\subprocess.py', 'PYMODULE'),
  ('asyncio.streams', 'c:\\puton\\lib\\asyncio\\streams.py', 'PYMODULE'),
  ('asyncio.queues', 'c:\\puton\\lib\\asyncio\\queues.py', 'PYMODULE'),
  ('asyncio.runners', 'c:\\puton\\lib\\asyncio\\runners.py', 'PYMODULE'),
  ('asyncio.events', 'c:\\puton\\lib\\asyncio\\events.py', 'PYMODULE'),
  ('contextvars', 'c:\\puton\\lib\\contextvars.py', 'PYMODULE'),
  ('asyncio.trsock', 'c:\\puton\\lib\\asyncio\\trsock.py', 'PYMODULE'),
  ('asyncio.staggered', 'c:\\puton\\lib\\asyncio\\staggered.py', 'PYMODULE'),
  ('asyncio.tasks', 'c:\\puton\\lib\\asyncio\\tasks.py', 'PYMODULE'),
  ('concurrent.futures',
   'c:\\puton\\lib\\concurrent\\futures\\__init__.py',
   'PYMODULE'),
  ('concurrent.futures.thread',
   'c:\\puton\\lib\\concurrent\\futures\\thread.py',
   'PYMODULE'),
  ('queue', 'c:\\puton\\lib\\queue.py', 'PYMODULE'),
  ('concurrent.futures.process',
   'c:\\puton\\lib\\concurrent\\futures\\process.py',
   'PYMODULE'),
  ('multiprocessing.queues',
   'c:\\puton\\lib\\multiprocessing\\queues.py',
   'PYMODULE'),
  ('multiprocessing.synchronize',
   'c:\\puton\\lib\\multiprocessing\\synchronize.py',
   'PYMODULE'),
  ('multiprocessing.heap',
   'c:\\puton\\lib\\multiprocessing\\heap.py',
   'PYMODULE'),
  ('bisect', 'c:\\puton\\lib\\bisect.py', 'PYMODULE'),
  ('multiprocessing.resource_tracker',
   'c:\\puton\\lib\\multiprocessing\\resource_tracker.py',
   'PYMODULE'),
  ('multiprocessing.spawn',
   'c:\\puton\\lib\\multiprocessing\\spawn.py',
   'PYMODULE'),
  ('runpy', 'c:\\puton\\lib\\runpy.py', 'PYMODULE'),
  ('importlib.util', 'c:\\puton\\lib\\importlib\\util.py', 'PYMODULE'),
  ('importlib._bootstrap_external',
   'c:\\puton\\lib\\importlib\\_bootstrap_external.py',
   'PYMODULE'),
  ('importlib.metadata', 'c:\\puton\\lib\\importlib\\metadata.py', 'PYMODULE'),
  ('configparser', 'c:\\puton\\lib\\configparser.py', 'PYMODULE'),
  ('pathlib', 'c:\\puton\\lib\\pathlib.py', 'PYMODULE'),
  ('urllib.parse', 'c:\\puton\\lib\\urllib\\parse.py', 'PYMODULE'),
  ('urllib', 'c:\\puton\\lib\\urllib\\__init__.py', 'PYMODULE'),
  ('email', 'c:\\puton\\lib\\email\\__init__.py', 'PYMODULE'),
  ('email._header_value_parser',
   'c:\\puton\\lib\\email\\_header_value_parser.py',
   'PYMODULE'),
  ('email.utils', 'c:\\puton\\lib\\email\\utils.py', 'PYMODULE'),
  ('email._parseaddr', 'c:\\puton\\lib\\email\\_parseaddr.py', 'PYMODULE'),
  ('email._encoded_words',
   'c:\\puton\\lib\\email\\_encoded_words.py',
   'PYMODULE'),
  ('email.header', 'c:\\puton\\lib\\email\\header.py', 'PYMODULE'),
  ('email.base64mime', 'c:\\puton\\lib\\email\\base64mime.py', 'PYMODULE'),
  ('email.quoprimime', 'c:\\puton\\lib\\email\\quoprimime.py', 'PYMODULE'),
  ('email.charset', 'c:\\puton\\lib\\email\\charset.py', 'PYMODULE'),
  ('email.encoders', 'c:\\puton\\lib\\email\\encoders.py', 'PYMODULE'),
  ('quopri', 'c:\\puton\\lib\\quopri.py', 'PYMODULE'),
  ('email.errors', 'c:\\puton\\lib\\email\\errors.py', 'PYMODULE'),
  ('csv', 'c:\\puton\\lib\\csv.py', 'PYMODULE'),
  ('tokenize', 'c:\\puton\\lib\\tokenize.py', 'PYMODULE'),
  ('token', 'c:\\puton\\lib\\token.py', 'PYMODULE'),
  ('importlib._bootstrap',
   'c:\\puton\\lib\\importlib\\_bootstrap.py',
   'PYMODULE'),
  ('importlib.abc', 'c:\\puton\\lib\\importlib\\abc.py', 'PYMODULE'),
  ('importlib', 'c:\\puton\\lib\\importlib\\__init__.py', 'PYMODULE'),
  ('multiprocessing.process',
   'c:\\puton\\lib\\multiprocessing\\process.py',
   'PYMODULE'),
  ('multiprocessing.util',
   'c:\\puton\\lib\\multiprocessing\\util.py',
   'PYMODULE'),
  ('multiprocessing.forkserver',
   'c:\\puton\\lib\\multiprocessing\\forkserver.py',
   'PYMODULE'),
  ('test.support', 'c:\\puton\\lib\\test\\support\\__init__.py', 'PYMODULE'),
  ('decimal', 'c:\\puton\\lib\\decimal.py', 'PYMODULE'),
  ('_pydecimal', 'c:\\puton\\lib\\_pydecimal.py', 'PYMODULE'),
  ('numbers', 'c:\\puton\\lib\\numbers.py', 'PYMODULE'),
  ('distutils.spawn', 'c:\\puton\\lib\\distutils\\spawn.py', 'PYMODULE'),
  ('distutils.log', 'c:\\puton\\lib\\distutils\\log.py', 'PYMODULE'),
  ('distutils.debug', 'c:\\puton\\lib\\distutils\\debug.py', 'PYMODULE'),
  ('distutils.errors', 'c:\\puton\\lib\\distutils\\errors.py', 'PYMODULE'),
  ('distutils.sysconfig',
   'c:\\puton\\lib\\distutils\\sysconfig.py',
   'PYMODULE'),
  ('distutils.text_file',
   'c:\\puton\\lib\\distutils\\text_file.py',
   'PYMODULE'),
  ('_osx_support', 'c:\\puton\\lib\\_osx_support.py', 'PYMODULE'),
  ('distutils.util', 'c:\\puton\\lib\\distutils\\util.py', 'PYMODULE'),
  ('distutils.filelist', 'c:\\puton\\lib\\distutils\\filelist.py', 'PYMODULE'),
  ('distutils.file_util',
   'c:\\puton\\lib\\distutils\\file_util.py',
   'PYMODULE'),
  ('distutils.dir_util', 'c:\\puton\\lib\\distutils\\dir_util.py', 'PYMODULE'),
  ('lib2to3.refactor', 'c:\\puton\\lib\\lib2to3\\refactor.py', 'PYMODULE'),
  ('lib2to3.btm_matcher',
   'c:\\puton\\lib\\lib2to3\\btm_matcher.py',
   'PYMODULE'),
  ('lib2to3.btm_utils', 'c:\\puton\\lib\\lib2to3\\btm_utils.py', 'PYMODULE'),
  ('lib2to3.pgen2.grammar',
   'c:\\puton\\lib\\lib2to3\\pgen2\\grammar.py',
   'PYMODULE'),
  ('lib2to3.pygram', 'c:\\puton\\lib\\lib2to3\\pygram.py', 'PYMODULE'),
  ('lib2to3.pytree', 'c:\\puton\\lib\\lib2to3\\pytree.py', 'PYMODULE'),
  ('lib2to3', 'c:\\puton\\lib\\lib2to3\\__init__.py', 'PYMODULE'),
  ('lib2to3.patcomp', 'c:\\puton\\lib\\lib2to3\\patcomp.py', 'PYMODULE'),
  ('lib2to3.pgen2.parse',
   'c:\\puton\\lib\\lib2to3\\pgen2\\parse.py',
   'PYMODULE'),
  ('lib2to3.pgen2.literals',
   'c:\\puton\\lib\\lib2to3\\pgen2\\literals.py',
   'PYMODULE'),
  ('lib2to3.fixer_util', 'c:\\puton\\lib\\lib2to3\\fixer_util.py', 'PYMODULE'),
  ('lib2to3.pgen2.token',
   'c:\\puton\\lib\\lib2to3\\pgen2\\token.py',
   'PYMODULE'),
  ('lib2to3.pgen2.tokenize',
   'c:\\puton\\lib\\lib2to3\\pgen2\\tokenize.py',
   'PYMODULE'),
  ('lib2to3.pgen2.driver',
   'c:\\puton\\lib\\lib2to3\\pgen2\\driver.py',
   'PYMODULE'),
  ('lib2to3.pgen2.pgen', 'c:\\puton\\lib\\lib2to3\\pgen2\\pgen.py', 'PYMODULE'),
  ('lib2to3.pgen2', 'c:\\puton\\lib\\lib2to3\\pgen2\\__init__.py', 'PYMODULE'),
  ('py_compile', 'c:\\puton\\lib\\py_compile.py', 'PYMODULE'),
  ('distutils.dep_util', 'c:\\puton\\lib\\distutils\\dep_util.py', 'PYMODULE'),
  ('distutils.ccompiler',
   'c:\\puton\\lib\\distutils\\ccompiler.py',
   'PYMODULE'),
  ('distutils.fancy_getopt',
   'c:\\puton\\lib\\distutils\\fancy_getopt.py',
   'PYMODULE'),
  ('distutils', 'c:\\puton\\lib\\distutils\\__init__.py', 'PYMODULE'),
  ('tracemalloc', 'c:\\puton\\lib\\tracemalloc.py', 'PYMODULE'),
  ('urllib.request', 'c:\\puton\\lib\\urllib\\request.py', 'PYMODULE'),
  ('getpass', 'c:\\puton\\lib\\getpass.py', 'PYMODULE'),
  ('nturl2path', 'c:\\puton\\lib\\nturl2path.py', 'PYMODULE'),
  ('ftplib', 'c:\\puton\\lib\\ftplib.py', 'PYMODULE'),
  ('netrc', 'c:\\puton\\lib\\netrc.py', 'PYMODULE'),
  ('shlex', 'c:\\puton\\lib\\shlex.py', 'PYMODULE'),
  ('mimetypes', 'c:\\puton\\lib\\mimetypes.py', 'PYMODULE'),
  ('http.cookiejar', 'c:\\puton\\lib\\http\\cookiejar.py', 'PYMODULE'),
  ('http', 'c:\\puton\\lib\\http\\__init__.py', 'PYMODULE'),
  ('urllib.response', 'c:\\puton\\lib\\urllib\\response.py', 'PYMODULE'),
  ('http.client', 'c:\\puton\\lib\\http\\client.py', 'PYMODULE'),
  ('email.message', 'c:\\puton\\lib\\email\\message.py', 'PYMODULE'),
  ('email.policy', 'c:\\puton\\lib\\email\\policy.py', 'PYMODULE'),
  ('email.contentmanager',
   'c:\\puton\\lib\\email\\contentmanager.py',
   'PYMODULE'),
  ('email.headerregistry',
   'c:\\puton\\lib\\email\\headerregistry.py',
   'PYMODULE'),
  ('email.iterators', 'c:\\puton\\lib\\email\\iterators.py', 'PYMODULE'),
  ('email.generator', 'c:\\puton\\lib\\email\\generator.py', 'PYMODULE'),
  ('email._policybase', 'c:\\puton\\lib\\email\\_policybase.py', 'PYMODULE'),
  ('uu', 'c:\\puton\\lib\\uu.py', 'PYMODULE'),
  ('optparse', 'c:\\puton\\lib\\optparse.py', 'PYMODULE'),
  ('tkinter', 'c:\\puton\\lib\\tkinter\\__init__.py', 'PYMODULE'),
  ('tkinter.constants', 'c:\\puton\\lib\\tkinter\\constants.py', 'PYMODULE'),
  ('ctypes.wintypes', 'c:\\puton\\lib\\ctypes\\wintypes.py', 'PYMODULE'),
  ('lzma', 'c:\\puton\\lib\\lzma.py', 'PYMODULE'),
  ('_compression', 'c:\\puton\\lib\\_compression.py', 'PYMODULE'),
  ('bz2', 'c:\\puton\\lib\\bz2.py', 'PYMODULE'),
  ('gzip', 'c:\\puton\\lib\\gzip.py', 'PYMODULE'),
  ('test.support.testresult',
   'c:\\puton\\lib\\test\\support\\testresult.py',
   'PYMODULE'),
  ('xml.etree.ElementTree',
   'c:\\puton\\lib\\xml\\etree\\ElementTree.py',
   'PYMODULE'),
  ('xml.etree.cElementTree',
   'c:\\puton\\lib\\xml\\etree\\cElementTree.py',
   'PYMODULE'),
  ('xml.etree.ElementInclude',
   'c:\\puton\\lib\\xml\\etree\\ElementInclude.py',
   'PYMODULE'),
  ('xml.parsers.expat', 'c:\\puton\\lib\\xml\\parsers\\expat.py', 'PYMODULE'),
  ('xml.parsers', 'c:\\puton\\lib\\xml\\parsers\\__init__.py', 'PYMODULE'),
  ('xml', 'c:\\puton\\lib\\xml\\__init__.py', 'PYMODULE'),
  ('xml.sax.expatreader',
   'c:\\puton\\lib\\xml\\sax\\expatreader.py',
   'PYMODULE'),
  ('xml.sax.saxutils', 'c:\\puton\\lib\\xml\\sax\\saxutils.py', 'PYMODULE'),
  ('xml.sax', 'c:\\puton\\lib\\xml\\sax\\__init__.py', 'PYMODULE'),
  ('xml.sax.handler', 'c:\\puton\\lib\\xml\\sax\\handler.py', 'PYMODULE'),
  ('xml.sax._exceptions',
   'c:\\puton\\lib\\xml\\sax\\_exceptions.py',
   'PYMODULE'),
  ('xml.sax.xmlreader', 'c:\\puton\\lib\\xml\\sax\\xmlreader.py', 'PYMODULE'),
  ('xml.etree.ElementPath',
   'c:\\puton\\lib\\xml\\etree\\ElementPath.py',
   'PYMODULE'),
  ('xml.etree', 'c:\\puton\\lib\\xml\\etree\\__init__.py', 'PYMODULE'),
  ('urllib.error', 'c:\\puton\\lib\\urllib\\error.py', 'PYMODULE'),
  ('nntplib', 'c:\\puton\\lib\\nntplib.py', 'PYMODULE'),
  ('logging.handlers', 'c:\\puton\\lib\\logging\\handlers.py', 'PYMODULE'),
  ('smtplib', 'c:\\puton\\lib\\smtplib.py', 'PYMODULE'),
  ('hmac', 'c:\\puton\\lib\\hmac.py', 'PYMODULE'),
  ('glob', 'c:\\puton\\lib\\glob.py', 'PYMODULE'),
  ('test', 'c:\\puton\\lib\\test\\__init__.py', 'PYMODULE'),
  ('multiprocessing.context',
   'c:\\puton\\lib\\multiprocessing\\context.py',
   'PYMODULE'),
  ('multiprocessing.popen_spawn_win32',
   'c:\\puton\\lib\\multiprocessing\\popen_spawn_win32.py',
   'PYMODULE'),
  ('multiprocessing.popen_forkserver',
   'c:\\puton\\lib\\multiprocessing\\popen_forkserver.py',
   'PYMODULE'),
  ('multiprocessing.popen_spawn_posix',
   'c:\\puton\\lib\\multiprocessing\\popen_spawn_posix.py',
   'PYMODULE'),
  ('multiprocessing.popen_fork',
   'c:\\puton\\lib\\multiprocessing\\popen_fork.py',
   'PYMODULE'),
  ('multiprocessing.sharedctypes',
   'c:\\puton\\lib\\multiprocessing\\sharedctypes.py',
   'PYMODULE'),
  ('multiprocessing.pool',
   'c:\\puton\\lib\\multiprocessing\\pool.py',
   'PYMODULE'),
  ('multiprocessing.dummy',
   'c:\\puton\\lib\\multiprocessing\\dummy\\__init__.py',
   'PYMODULE'),
  ('multiprocessing.dummy.connection',
   'c:\\puton\\lib\\multiprocessing\\dummy\\connection.py',
   'PYMODULE'),
  ('multiprocessing.managers',
   'c:\\puton\\lib\\multiprocessing\\managers.py',
   'PYMODULE'),
  ('multiprocessing.shared_memory',
   'c:\\puton\\lib\\multiprocessing\\shared_memory.py',
   'PYMODULE'),
  ('secrets', 'c:\\puton\\lib\\secrets.py', 'PYMODULE'),
  ('multiprocessing.reduction',
   'c:\\puton\\lib\\multiprocessing\\reduction.py',
   'PYMODULE'),
  ('multiprocessing.resource_sharer',
   'c:\\puton\\lib\\multiprocessing\\resource_sharer.py',
   'PYMODULE'),
  ('multiprocessing.connection',
   'c:\\puton\\lib\\multiprocessing\\connection.py',
   'PYMODULE'),
  ('xmlrpc.client', 'c:\\puton\\lib\\xmlrpc\\client.py', 'PYMODULE'),
  ('xmlrpc', 'c:\\puton\\lib\\xmlrpc\\__init__.py', 'PYMODULE'),
  ('multiprocessing',
   'c:\\puton\\lib\\multiprocessing\\__init__.py',
   'PYMODULE'),
  ('concurrent.futures._base',
   'c:\\puton\\lib\\concurrent\\futures\\_base.py',
   'PYMODULE'),
  ('concurrent', 'c:\\puton\\lib\\concurrent\\__init__.py', 'PYMODULE'),
  ('asyncio.base_tasks', 'c:\\puton\\lib\\asyncio\\base_tasks.py', 'PYMODULE'),
  ('asyncio.locks', 'c:\\puton\\lib\\asyncio\\locks.py', 'PYMODULE'),
  ('asyncio.sslproto', 'c:\\puton\\lib\\asyncio\\sslproto.py', 'PYMODULE'),
  ('asyncio.transports', 'c:\\puton\\lib\\asyncio\\transports.py', 'PYMODULE'),
  ('asyncio.base_events',
   'c:\\puton\\lib\\asyncio\\base_events.py',
   'PYMODULE'),
  ('asyncio.protocols', 'c:\\puton\\lib\\asyncio\\protocols.py', 'PYMODULE'),
  ('asyncio.futures', 'c:\\puton\\lib\\asyncio\\futures.py', 'PYMODULE'),
  ('asyncio.coroutines', 'c:\\puton\\lib\\asyncio\\coroutines.py', 'PYMODULE'),
  ('asyncio.base_futures',
   'c:\\puton\\lib\\asyncio\\base_futures.py',
   'PYMODULE'),
  ('asyncio.exceptions', 'c:\\puton\\lib\\asyncio\\exceptions.py', 'PYMODULE'),
  ('asyncio.format_helpers',
   'c:\\puton\\lib\\asyncio\\format_helpers.py',
   'PYMODULE'),
  ('asyncio.constants', 'c:\\puton\\lib\\asyncio\\constants.py', 'PYMODULE'),
  ('unittest.result', 'c:\\puton\\lib\\unittest\\result.py', 'PYMODULE'),
  ('unittest.util', 'c:\\puton\\lib\\unittest\\util.py', 'PYMODULE'),
  ('difflib', 'c:\\puton\\lib\\difflib.py', 'PYMODULE'),
  ('_compat_pickle', 'c:\\puton\\lib\\_compat_pickle.py', 'PYMODULE'),
  ('struct', 'c:\\puton\\lib\\struct.py', 'PYMODULE'),
  ('random', 'c:\\puton\\lib\\random.py', 'PYMODULE'),
  ('ctypes.util', 'c:\\puton\\lib\\ctypes\\util.py', 'PYMODULE'),
  ('ctypes._aix', 'c:\\puton\\lib\\ctypes\\_aix.py', 'PYMODULE'),
  ('ctypes.macholib.dyld',
   'c:\\puton\\lib\\ctypes\\macholib\\dyld.py',
   'PYMODULE'),
  ('ctypes.macholib',
   'c:\\puton\\lib\\ctypes\\macholib\\__init__.py',
   'PYMODULE'),
  ('ctypes.macholib.dylib',
   'c:\\puton\\lib\\ctypes\\macholib\\dylib.py',
   'PYMODULE'),
  ('ctypes.macholib.framework',
   'c:\\puton\\lib\\ctypes\\macholib\\framework.py',
   'PYMODULE'),
  ('ctypes', 'c:\\puton\\lib\\ctypes\\__init__.py', 'PYMODULE'),
  ('ctypes._endian', 'c:\\puton\\lib\\ctypes\\_endian.py', 'PYMODULE'),
  ('socket', 'c:\\puton\\lib\\socket.py', 'PYMODULE'),
  ('subprocess', 'c:\\puton\\lib\\subprocess.py', 'PYMODULE'),
  ('shutil', 'c:\\puton\\lib\\shutil.py', 'PYMODULE'),
  ('tarfile', 'c:\\puton\\lib\\tarfile.py', 'PYMODULE'),
  ('pdb', 'c:\\puton\\lib\\pdb.py', 'PYMODULE'),
  ('pydoc', 'c:\\puton\\lib\\pydoc.py', 'PYMODULE'),
  ('webbrowser', 'c:\\puton\\lib\\webbrowser.py', 'PYMODULE'),
  ('http.server', 'c:\\puton\\lib\\http\\server.py', 'PYMODULE'),
  ('socketserver', 'c:\\puton\\lib\\socketserver.py', 'PYMODULE'),
  ('html', 'c:\\puton\\lib\\html\\__init__.py', 'PYMODULE'),
  ('html.entities', 'c:\\puton\\lib\\html\\entities.py', 'PYMODULE'),
  ('pydoc_data.topics', 'c:\\puton\\lib\\pydoc_data\\topics.py', 'PYMODULE'),
  ('pydoc_data', 'c:\\puton\\lib\\pydoc_data\\__init__.py', 'PYMODULE'),
  ('tty', 'c:\\puton\\lib\\tty.py', 'PYMODULE'),
  ('code', 'c:\\puton\\lib\\code.py', 'PYMODULE'),
  ('codeop', 'c:\\puton\\lib\\codeop.py', 'PYMODULE'),
  ('dis', 'c:\\puton\\lib\\dis.py', 'PYMODULE'),
  ('opcode', 'c:\\puton\\lib\\opcode.py', 'PYMODULE'),
  ('bdb', 'c:\\puton\\lib\\bdb.py', 'PYMODULE'),
  ('cmd', 'c:\\puton\\lib\\cmd.py', 'PYMODULE'),
  ('threading', 'c:\\puton\\lib\\threading.py', 'PYMODULE'),
  ('_threading_local', 'c:\\puton\\lib\\_threading_local.py', 'PYMODULE'),
  ('datetime', 'c:\\puton\\lib\\datetime.py', 'PYMODULE'),
  ('_strptime', 'c:\\puton\\lib\\_strptime.py', 'PYMODULE'),
  ('pprint', 'c:\\puton\\lib\\pprint.py', 'PYMODULE'),
  ('copy', 'c:\\puton\\lib\\copy.py', 'PYMODULE'),
  ('string', 'c:\\puton\\lib\\string.py', 'PYMODULE'),
  ('packaging._typing',
   'c:\\puton\\lib\\site-packages\\packaging\\_typing.py',
   'PYMODULE'),
  ('packaging.requirements',
   'c:\\puton\\lib\\site-packages\\packaging\\requirements.py',
   'PYMODULE'),
  ('six', 'c:\\puton\\lib\\site-packages\\six.py', 'PYMODULE'),
  ('packaging.utils',
   'c:\\puton\\lib\\site-packages\\packaging\\utils.py',
   'PYMODULE'),
  ('packaging._structures',
   'c:\\puton\\lib\\site-packages\\packaging\\_structures.py',
   'PYMODULE'),
  ('packaging.specifiers',
   'c:\\puton\\lib\\site-packages\\packaging\\specifiers.py',
   'PYMODULE'),
  ('packaging._compat',
   'c:\\puton\\lib\\site-packages\\packaging\\_compat.py',
   'PYMODULE'),
  ('packaging',
   'c:\\puton\\lib\\site-packages\\packaging\\__init__.py',
   'PYMODULE'),
  ('packaging.tags',
   'c:\\puton\\lib\\site-packages\\packaging\\tags.py',
   'PYMODULE'),
  ('packaging.version',
   'c:\\puton\\lib\\site-packages\\packaging\\version.py',
   'PYMODULE'),
  ('packaging.__about__',
   'c:\\puton\\lib\\site-packages\\packaging\\__about__.py',
   'PYMODULE'),
  ('pkg_resources._vendor',
   'c:\\puton\\lib\\site-packages\\pkg_resources\\_vendor\\__init__.py',
   'PYMODULE'),
  ('pkg_resources._vendor.packaging.utils',
   'c:\\puton\\lib\\site-packages\\pkg_resources\\_vendor\\packaging\\utils.py',
   'PYMODULE'),
  ('pkg_resources._vendor.appdirs',
   'c:\\puton\\lib\\site-packages\\pkg_resources\\_vendor\\appdirs.py',
   'PYMODULE'),
  ('pkg_resources._vendor.pyparsing',
   'c:\\puton\\lib\\site-packages\\pkg_resources\\_vendor\\pyparsing.py',
   'PYMODULE'),
  ('pkg_resources._vendor.packaging.version',
   'c:\\puton\\lib\\site-packages\\pkg_resources\\_vendor\\packaging\\version.py',
   'PYMODULE'),
  ('pkg_resources._vendor.packaging._structures',
   'c:\\puton\\lib\\site-packages\\pkg_resources\\_vendor\\packaging\\_structures.py',
   'PYMODULE'),
  ('pkg_resources._vendor.six',
   'c:\\puton\\lib\\site-packages\\pkg_resources\\_vendor\\six.py',
   'PYMODULE'),
  ('pkg_resources._vendor.packaging.markers',
   'c:\\puton\\lib\\site-packages\\pkg_resources\\_vendor\\packaging\\markers.py',
   'PYMODULE'),
  ('pkg_resources._vendor.packaging.__about__',
   'c:\\puton\\lib\\site-packages\\pkg_resources\\_vendor\\packaging\\__about__.py',
   'PYMODULE'),
  ('pkg_resources._vendor.packaging.tags',
   'c:\\puton\\lib\\site-packages\\pkg_resources\\_vendor\\packaging\\tags.py',
   'PYMODULE'),
  ('pkg_resources._vendor.packaging.specifiers',
   'c:\\puton\\lib\\site-packages\\pkg_resources\\_vendor\\packaging\\specifiers.py',
   'PYMODULE'),
  ('pkg_resources._vendor.packaging',
   'c:\\puton\\lib\\site-packages\\pkg_resources\\_vendor\\packaging\\__init__.py',
   'PYMODULE'),
  ('pkg_resources._vendor.packaging._compat',
   'c:\\puton\\lib\\site-packages\\pkg_resources\\_vendor\\packaging\\_compat.py',
   'PYMODULE'),
  ('pkg_resources._vendor.packaging.requirements',
   'c:\\puton\\lib\\site-packages\\pkg_resources\\_vendor\\packaging\\requirements.py',
   'PYMODULE'),
  ('sysconfig', 'c:\\puton\\lib\\sysconfig.py', 'PYMODULE'),
  ('importlib.machinery',
   'c:\\puton\\lib\\importlib\\machinery.py',
   'PYMODULE'),
  ('pkg_resources.extern',
   'c:\\puton\\lib\\site-packages\\pkg_resources\\extern\\__init__.py',
   'PYMODULE'),
  ('imp', 'c:\\puton\\lib\\imp.py', 'PYMODULE'),
  ('posixpath', 'c:\\puton\\lib\\posixpath.py', 'PYMODULE'),
  ('genericpath', 'c:\\puton\\lib\\genericpath.py', 'PYMODULE'),
  ('ntpath', 'c:\\puton\\lib\\ntpath.py', 'PYMODULE'),
  ('inspect', 'c:\\puton\\lib\\inspect.py', 'PYMODULE'),
  ('ast', 'c:\\puton\\lib\\ast.py', 'PYMODULE'),
  ('textwrap', 'c:\\puton\\lib\\textwrap.py', 'PYMODULE'),
  ('tempfile', 'c:\\puton\\lib\\tempfile.py', 'PYMODULE'),
  ('email.parser', 'c:\\puton\\lib\\email\\parser.py', 'PYMODULE'),
  ('email.feedparser', 'c:\\puton\\lib\\email\\feedparser.py', 'PYMODULE'),
  ('plistlib', 'c:\\puton\\lib\\plistlib.py', 'PYMODULE'),
  ('platform', 'c:\\puton\\lib\\platform.py', 'PYMODULE'),
  ('pkgutil', 'c:\\puton\\lib\\pkgutil.py', 'PYMODULE'),
  ('stat', 'c:\\puton\\lib\\stat.py', 'PYMODULE'),
  ('zipimport', 'c:\\puton\\lib\\zipimport.py', 'PYMODULE'),
  ('zipfile', 'c:\\puton\\lib\\zipfile.py', 'PYMODULE'),
  ('os', 'c:\\puton\\lib\\os.py', 'PYMODULE'),
  ('__future__', 'c:\\puton\\lib\\__future__.py', 'PYMODULE'),
  ('stringprep', 'c:\\puton\\lib\\stringprep.py', 'PYMODULE'),
  ('_py_abc', 'c:\\puton\\lib\\_py_abc.py', 'PYMODULE'),
  ('main_prog', 'F:\\prog\\project_vvpd\\main_prog.py', 'PYMODULE'),
  ('argparse', 'c:\\puton\\lib\\argparse.py', 'PYMODULE'),
  ('pytest', 'c:\\puton\\lib\\site-packages\\pytest\\__init__.py', 'PYMODULE'),
  ('_pytest.warnings',
   'c:\\puton\\lib\\site-packages\\_pytest\\warnings.py',
   'PYMODULE'),
  ('_pytest.unittest',
   'c:\\puton\\lib\\site-packages\\_pytest\\unittest.py',
   'PYMODULE'),
  ('_pytest._code',
   'c:\\puton\\lib\\site-packages\\_pytest\\_code\\__init__.py',
   'PYMODULE'),
  ('_pytest.tmpdir',
   'c:\\puton\\lib\\site-packages\\_pytest\\tmpdir.py',
   'PYMODULE'),
  ('py', 'c:\\puton\\lib\\site-packages\\py\\__init__.py', 'PYMODULE'),
  ('py._vendored_packages',
   'c:\\puton\\lib\\site-packages\\py\\_vendored_packages\\__init__.py',
   'PYMODULE'),
  ('attr', 'c:\\puton\\lib\\site-packages\\attr\\__init__.py', 'PYMODULE'),
  ('attr._next_gen',
   'c:\\puton\\lib\\site-packages\\attr\\_next_gen.py',
   'PYMODULE'),
  ('attr._version_info',
   'c:\\puton\\lib\\site-packages\\attr\\_version_info.py',
   'PYMODULE'),
  ('attr._make', 'c:\\puton\\lib\\site-packages\\attr\\_make.py', 'PYMODULE'),
  ('attr._compat',
   'c:\\puton\\lib\\site-packages\\attr\\_compat.py',
   'PYMODULE'),
  ('attr._funcs', 'c:\\puton\\lib\\site-packages\\attr\\_funcs.py', 'PYMODULE'),
  ('attr.validators',
   'c:\\puton\\lib\\site-packages\\attr\\validators.py',
   'PYMODULE'),
  ('attr.filters',
   'c:\\puton\\lib\\site-packages\\attr\\filters.py',
   'PYMODULE'),
  ('attr.exceptions',
   'c:\\puton\\lib\\site-packages\\attr\\exceptions.py',
   'PYMODULE'),
  ('attr.converters',
   'c:\\puton\\lib\\site-packages\\attr\\converters.py',
   'PYMODULE'),
  ('attr.setters',
   'c:\\puton\\lib\\site-packages\\attr\\setters.py',
   'PYMODULE'),
  ('attr._config',
   'c:\\puton\\lib\\site-packages\\attr\\_config.py',
   'PYMODULE'),
  ('_pytest.timing',
   'c:\\puton\\lib\\site-packages\\_pytest\\timing.py',
   'PYMODULE'),
  ('_pytest.terminal',
   'c:\\puton\\lib\\site-packages\\_pytest\\terminal.py',
   'PYMODULE'),
  ('pluggy', 'c:\\puton\\lib\\site-packages\\pluggy\\__init__.py', 'PYMODULE'),
  ('pluggy.hooks',
   'c:\\puton\\lib\\site-packages\\pluggy\\hooks.py',
   'PYMODULE'),
  ('pluggy.callers',
   'c:\\puton\\lib\\site-packages\\pluggy\\callers.py',
   'PYMODULE'),
  ('pluggy.manager',
   'c:\\puton\\lib\\site-packages\\pluggy\\manager.py',
   'PYMODULE'),
  ('pluggy._tracing',
   'c:\\puton\\lib\\site-packages\\pluggy\\_tracing.py',
   'PYMODULE'),
  ('pluggy._version',
   'c:\\puton\\lib\\site-packages\\pluggy\\_version.py',
   'PYMODULE'),
  ('_pytest.store',
   'c:\\puton\\lib\\site-packages\\_pytest\\store.py',
   'PYMODULE'),
  ('_pytest.stepwise',
   'c:\\puton\\lib\\site-packages\\_pytest\\stepwise.py',
   'PYMODULE'),
  ('_pytest.skipping',
   'c:\\puton\\lib\\site-packages\\_pytest\\skipping.py',
   'PYMODULE'),
  ('_pytest.setupplan',
   'c:\\puton\\lib\\site-packages\\_pytest\\setupplan.py',
   'PYMODULE'),
  ('_pytest.setuponly',
   'c:\\puton\\lib\\site-packages\\_pytest\\setuponly.py',
   'PYMODULE'),
  ('_pytest.runner',
   'c:\\puton\\lib\\site-packages\\_pytest\\runner.py',
   'PYMODULE'),
  ('_pytest.reports',
   'c:\\puton\\lib\\site-packages\\_pytest\\reports.py',
   'PYMODULE'),
  ('_pytest._io',
   'c:\\puton\\lib\\site-packages\\_pytest\\_io\\__init__.py',
   'PYMODULE'),
  ('_pytest.pytester',
   'c:\\puton\\lib\\site-packages\\_pytest\\pytester.py',
   'PYMODULE'),
  ('iniconfig', 'c:\\puton\\lib\\site-packages\\iniconfig.py', 'PYMODULE'),
  ('_pytest.pathlib',
   'c:\\puton\\lib\\site-packages\\_pytest\\pathlib.py',
   'PYMODULE'),
  ('_pytest.pastebin',
   'c:\\puton\\lib\\site-packages\\_pytest\\pastebin.py',
   'PYMODULE'),
  ('_pytest.nose',
   'c:\\puton\\lib\\site-packages\\_pytest\\nose.py',
   'PYMODULE'),
  ('_pytest.monkeypatch',
   'c:\\puton\\lib\\site-packages\\_pytest\\monkeypatch.py',
   'PYMODULE'),
  ('_pytest.mark.structures',
   'c:\\puton\\lib\\site-packages\\_pytest\\mark\\structures.py',
   'PYMODULE'),
  ('_pytest.mark.expression',
   'c:\\puton\\lib\\site-packages\\_pytest\\mark\\expression.py',
   'PYMODULE'),
  ('_pytest.logging',
   'c:\\puton\\lib\\site-packages\\_pytest\\logging.py',
   'PYMODULE'),
  ('_pytest.junitxml',
   'c:\\puton\\lib\\site-packages\\_pytest\\junitxml.py',
   'PYMODULE'),
  ('_pytest.hookspec',
   'c:\\puton\\lib\\site-packages\\_pytest\\hookspec.py',
   'PYMODULE'),
  ('_pytest.helpconfig',
   'c:\\puton\\lib\\site-packages\\_pytest\\helpconfig.py',
   'PYMODULE'),
  ('_pytest.faulthandler',
   'c:\\puton\\lib\\site-packages\\_pytest\\faulthandler.py',
   'PYMODULE'),
  ('_pytest.doctest',
   'c:\\puton\\lib\\site-packages\\_pytest\\doctest.py',
   'PYMODULE'),
  ('_pytest.deprecated',
   'c:\\puton\\lib\\site-packages\\_pytest\\deprecated.py',
   'PYMODULE'),
  ('_pytest.config.findpaths',
   'c:\\puton\\lib\\site-packages\\_pytest\\config\\findpaths.py',
   'PYMODULE'),
  ('toml', 'c:\\puton\\lib\\site-packages\\toml\\__init__.py', 'PYMODULE'),
  ('toml.decoder',
   'c:\\puton\\lib\\site-packages\\toml\\decoder.py',
   'PYMODULE'),
  ('toml.tz', 'c:\\puton\\lib\\site-packages\\toml\\tz.py', 'PYMODULE'),
  ('toml.encoder',
   'c:\\puton\\lib\\site-packages\\toml\\encoder.py',
   'PYMODULE'),
  ('_pytest.config.exceptions',
   'c:\\puton\\lib\\site-packages\\_pytest\\config\\exceptions.py',
   'PYMODULE'),
  ('_pytest.config.argparsing',
   'c:\\puton\\lib\\site-packages\\_pytest\\config\\argparsing.py',
   'PYMODULE'),
  ('_pytest.compat',
   'c:\\puton\\lib\\site-packages\\_pytest\\compat.py',
   'PYMODULE'),
  ('_pytest.capture',
   'c:\\puton\\lib\\site-packages\\_pytest\\capture.py',
   'PYMODULE'),
  ('colorama',
   'c:\\puton\\lib\\site-packages\\colorama\\__init__.py',
   'PYMODULE'),
  ('colorama.ansitowin32',
   'c:\\puton\\lib\\site-packages\\colorama\\ansitowin32.py',
   'PYMODULE'),
  ('colorama.winterm',
   'c:\\puton\\lib\\site-packages\\colorama\\winterm.py',
   'PYMODULE'),
  ('colorama.ansi',
   'c:\\puton\\lib\\site-packages\\colorama\\ansi.py',
   'PYMODULE'),
  ('colorama.initialise',
   'c:\\puton\\lib\\site-packages\\colorama\\initialise.py',
   'PYMODULE'),
  ('colorama.win32',
   'c:\\puton\\lib\\site-packages\\colorama\\win32.py',
   'PYMODULE'),
  ('_pytest.cacheprovider',
   'c:\\puton\\lib\\site-packages\\_pytest\\cacheprovider.py',
   'PYMODULE'),
  ('json', 'c:\\puton\\lib\\json\\__init__.py', 'PYMODULE'),
  ('json.encoder', 'c:\\puton\\lib\\json\\encoder.py', 'PYMODULE'),
  ('json.decoder', 'c:\\puton\\lib\\json\\decoder.py', 'PYMODULE'),
  ('json.scanner', 'c:\\puton\\lib\\json\\scanner.py', 'PYMODULE'),
  ('_pytest.assertion.util',
   'c:\\puton\\lib\\site-packages\\_pytest\\assertion\\util.py',
   'PYMODULE'),
  ('_pytest.assertion.truncate',
   'c:\\puton\\lib\\site-packages\\_pytest\\assertion\\truncate.py',
   'PYMODULE'),
  ('_pytest.assertion.rewrite',
   'c:\\puton\\lib\\site-packages\\_pytest\\assertion\\rewrite.py',
   'PYMODULE'),
  ('atomicwrites',
   'c:\\puton\\lib\\site-packages\\atomicwrites\\__init__.py',
   'PYMODULE'),
  ('_pytest._version',
   'c:\\puton\\lib\\site-packages\\_pytest\\_version.py',
   'PYMODULE'),
  ('_pytest._io.wcwidth',
   'c:\\puton\\lib\\site-packages\\_pytest\\_io\\wcwidth.py',
   'PYMODULE'),
  ('_pytest._io.terminalwriter',
   'c:\\puton\\lib\\site-packages\\_pytest\\_io\\terminalwriter.py',
   'PYMODULE'),
  ('_pytest._io.saferepr',
   'c:\\puton\\lib\\site-packages\\_pytest\\_io\\saferepr.py',
   'PYMODULE'),
  ('_pytest._code.source',
   'c:\\puton\\lib\\site-packages\\_pytest\\_code\\source.py',
   'PYMODULE'),
  ('_pytest._code.code',
   'c:\\puton\\lib\\site-packages\\_pytest\\_code\\code.py',
   'PYMODULE'),
  ('_pytest._argcomplete',
   'c:\\puton\\lib\\site-packages\\_pytest\\_argcomplete.py',
   'PYMODULE'),
  ('py.test', 'c:\\puton\\lib\\site-packages\\py\\test.py', 'PYMODULE'),
  ('py._xmlgen', 'c:\\puton\\lib\\site-packages\\py\\_xmlgen.py', 'PYMODULE'),
  ('py._version', 'c:\\puton\\lib\\site-packages\\py\\_version.py', 'PYMODULE'),
  ('py._vendored_packages.iniconfig',
   'c:\\puton\\lib\\site-packages\\py\\_vendored_packages\\iniconfig.py',
   'PYMODULE'),
  ('py._vendored_packages.apipkg',
   'c:\\puton\\lib\\site-packages\\py\\_vendored_packages\\apipkg.py',
   'PYMODULE'),
  ('py._std', 'c:\\puton\\lib\\site-packages\\py\\_std.py', 'PYMODULE'),
  ('py._process.killproc',
   'c:\\puton\\lib\\site-packages\\py\\_process\\killproc.py',
   'PYMODULE'),
  ('py._process',
   'c:\\puton\\lib\\site-packages\\py\\_process\\__init__.py',
   'PYMODULE'),
  ('py._process.forkedfunc',
   'c:\\puton\\lib\\site-packages\\py\\_process\\forkedfunc.py',
   'PYMODULE'),
  ('py._process.cmdexec',
   'c:\\puton\\lib\\site-packages\\py\\_process\\cmdexec.py',
   'PYMODULE'),
  ('py._path.svnwc',
   'c:\\puton\\lib\\site-packages\\py\\_path\\svnwc.py',
   'PYMODULE'),
  ('xml.dom.minidom', 'c:\\puton\\lib\\xml\\dom\\minidom.py', 'PYMODULE'),
  ('xml.dom.pulldom', 'c:\\puton\\lib\\xml\\dom\\pulldom.py', 'PYMODULE'),
  ('xml.dom.expatbuilder',
   'c:\\puton\\lib\\xml\\dom\\expatbuilder.py',
   'PYMODULE'),
  ('xml.dom.NodeFilter', 'c:\\puton\\lib\\xml\\dom\\NodeFilter.py', 'PYMODULE'),
  ('xml.dom.xmlbuilder', 'c:\\puton\\lib\\xml\\dom\\xmlbuilder.py', 'PYMODULE'),
  ('xml.dom.minicompat', 'c:\\puton\\lib\\xml\\dom\\minicompat.py', 'PYMODULE'),
  ('xml.dom.domreg', 'c:\\puton\\lib\\xml\\dom\\domreg.py', 'PYMODULE'),
  ('xml.dom', 'c:\\puton\\lib\\xml\\dom\\__init__.py', 'PYMODULE'),
  ('py._path',
   'c:\\puton\\lib\\site-packages\\py\\_path\\__init__.py',
   'PYMODULE'),
  ('py._path.svnurl',
   'c:\\puton\\lib\\site-packages\\py\\_path\\svnurl.py',
   'PYMODULE'),
  ('py._path.local',
   'c:\\puton\\lib\\site-packages\\py\\_path\\local.py',
   'PYMODULE'),
  ('py._path.common',
   'c:\\puton\\lib\\site-packages\\py\\_path\\common.py',
   'PYMODULE'),
  ('py._path.cacheutil',
   'c:\\puton\\lib\\site-packages\\py\\_path\\cacheutil.py',
   'PYMODULE'),
  ('py._log.warning',
   'c:\\puton\\lib\\site-packages\\py\\_log\\warning.py',
   'PYMODULE'),
  ('py._log',
   'c:\\puton\\lib\\site-packages\\py\\_log\\__init__.py',
   'PYMODULE'),
  ('py._log.log',
   'c:\\puton\\lib\\site-packages\\py\\_log\\log.py',
   'PYMODULE'),
  ('py._io.terminalwriter',
   'c:\\puton\\lib\\site-packages\\py\\_io\\terminalwriter.py',
   'PYMODULE'),
  ('py._io', 'c:\\puton\\lib\\site-packages\\py\\_io\\__init__.py', 'PYMODULE'),
  ('py._io.saferepr',
   'c:\\puton\\lib\\site-packages\\py\\_io\\saferepr.py',
   'PYMODULE'),
  ('py._io.capture',
   'c:\\puton\\lib\\site-packages\\py\\_io\\capture.py',
   'PYMODULE'),
  ('py._error', 'c:\\puton\\lib\\site-packages\\py\\_error.py', 'PYMODULE'),
  ('py._code.source',
   'c:\\puton\\lib\\site-packages\\py\\_code\\source.py',
   'PYMODULE'),
  ('py._code',
   'c:\\puton\\lib\\site-packages\\py\\_code\\__init__.py',
   'PYMODULE'),
  ('py._code.code',
   'c:\\puton\\lib\\site-packages\\py\\_code\\code.py',
   'PYMODULE'),
  ('py._code.assertion',
   'c:\\puton\\lib\\site-packages\\py\\_code\\assertion.py',
   'PYMODULE'),
  ('py._code._py2traceback',
   'c:\\puton\\lib\\site-packages\\py\\_code\\_py2traceback.py',
   'PYMODULE'),
  ('py._code._assertionold',
   'c:\\puton\\lib\\site-packages\\py\\_code\\_assertionold.py',
   'PYMODULE'),
  ('py._code._assertionnew',
   'c:\\puton\\lib\\site-packages\\py\\_code\\_assertionnew.py',
   'PYMODULE'),
  ('py._builtin', 'c:\\puton\\lib\\site-packages\\py\\_builtin.py', 'PYMODULE'),
  ('py.__metainfo',
   'c:\\puton\\lib\\site-packages\\py\\__metainfo.py',
   'PYMODULE'),
  ('_pytest.warning_types',
   'c:\\puton\\lib\\site-packages\\_pytest\\warning_types.py',
   'PYMODULE'),
  ('_pytest.recwarn',
   'c:\\puton\\lib\\site-packages\\_pytest\\recwarn.py',
   'PYMODULE'),
  ('_pytest.python_api',
   'c:\\puton\\lib\\site-packages\\_pytest\\python_api.py',
   'PYMODULE'),
  ('_pytest.python',
   'c:\\puton\\lib\\site-packages\\_pytest\\python.py',
   'PYMODULE'),
  ('_pytest.outcomes',
   'c:\\puton\\lib\\site-packages\\_pytest\\outcomes.py',
   'PYMODULE'),
  ('_pytest.nodes',
   'c:\\puton\\lib\\site-packages\\_pytest\\nodes.py',
   'PYMODULE'),
  ('_pytest.mark',
   'c:\\puton\\lib\\site-packages\\_pytest\\mark\\__init__.py',
   'PYMODULE'),
  ('_pytest.main',
   'c:\\puton\\lib\\site-packages\\_pytest\\main.py',
   'PYMODULE'),
  ('_pytest.freeze_support',
   'c:\\puton\\lib\\site-packages\\_pytest\\freeze_support.py',
   'PYMODULE'),
  ('_pytest.fixtures',
   'c:\\puton\\lib\\site-packages\\_pytest\\fixtures.py',
   'PYMODULE'),
  ('_pytest.debugging',
   'c:\\puton\\lib\\site-packages\\_pytest\\debugging.py',
   'PYMODULE'),
  ('_pytest.config',
   'c:\\puton\\lib\\site-packages\\_pytest\\config\\__init__.py',
   'PYMODULE'),
  ('_pytest.assertion',
   'c:\\puton\\lib\\site-packages\\_pytest\\assertion\\__init__.py',
   'PYMODULE'),
  ('_pytest',
   'c:\\puton\\lib\\site-packages\\_pytest\\__init__.py',
   'PYMODULE'),
  ('pytest.collect',
   'c:\\puton\\lib\\site-packages\\pytest\\collect.py',
   'PYMODULE')])
